# Vectary OBJ Export units=mm
o 01_LINE OBJECT 1
g LINE OBJECT 1
v -90.000 297.551 -10.000
v -80.000 297.551 -10.000
v -70.000 297.551 -10.000
v -60.000 297.551 -10.000
v -50.000 297.551 -10.000
v -40.000 297.551 -10.000
v -30.000 297.551 -10.000
v -20.000 297.551 -10.000
v -10.000 297.551 -10.000
v -90.000 285.102 -10.000
v -80.000 285.102 -10.000
v -70.000 285.102 -10.000
v -60.000 285.102 -10.000
v -50.000 285.102 -10.000
v -40.000 285.102 -10.000
v -30.000 285.102 -10.000
v -20.000 285.102 -10.000
v -10.000 285.102 -10.000
v -90.000 272.653 -10.000
v -80.000 272.653 -10.000
v -70.000 272.653 -10.000
v -60.000 272.653 -10.000
v -50.000 272.653 -10.000
v -40.000 272.653 -10.000
v -30.000 272.653 -10.000
v -20.000 272.653 -10.000
v -10.000 272.653 -10.000
v -90.000 260.204 -10.000
v -80.000 260.204 -10.000
v -70.000 260.204 -10.000
v -60.000 260.204 -10.000
v -50.000 260.204 -10.000
v -40.000 260.204 -10.000
v -30.000 260.204 -10.000
v -20.000 260.204 -10.000
v -10.000 260.204 -10.000
v -90.000 247.755 -10.000
v -80.000 247.755 -10.000
v -70.000 247.755 -10.000
v -60.000 247.755 -10.000
v -50.000 247.755 -10.000
v -40.000 247.755 -10.000
v -30.000 247.755 -10.000
v -20.000 247.755 -10.000
v -10.000 247.755 -10.000
v -90.000 235.306 -10.000
v -80.000 235.306 -10.000
v -70.000 235.306 -10.000
v -60.000 235.306 -10.000
v -50.000 235.306 -10.000
v -40.000 235.306 -10.000
v -30.000 235.306 -10.000
v -20.000 235.306 -10.000
v -10.000 235.306 -10.000
v -90.000 222.857 -10.000
v -80.000 222.857 -10.000
v -70.000 222.857 -10.000
v -60.000 222.857 -10.000
v -50.000 222.857 -10.000
v -40.000 222.857 -10.000
v -30.000 222.857 -10.000
v -20.000 222.857 -10.000
v -10.000 222.857 -10.000
v -90.000 210.408 -10.000
v -80.000 210.408 -10.000
v -70.000 210.408 -10.000
v -60.000 210.408 -10.000
v -50.000 210.408 -10.000
v -40.000 210.408 -10.000
v -30.000 210.408 -10.000
v -20.000 210.408 -10.000
v -10.000 210.408 -10.000
v -90.000 197.959 -10.000
v -80.000 197.959 -10.000
v -70.000 197.959 -10.000
v -60.000 197.959 -10.000
v -50.000 197.959 -10.000
v -40.000 197.959 -10.000
v -30.000 197.959 -10.000
v -20.000 197.959 -10.000
v -10.000 197.959 -10.000
v -90.000 185.510 -10.000
v -80.000 185.510 -10.000
v -70.000 185.510 -10.000
v -60.000 185.510 -10.000
v -50.000 185.510 -10.000
v -40.000 185.510 -10.000
v -30.000 185.510 -10.000
v -20.000 185.510 -10.000
v -10.000 185.510 -10.000
v -90.000 173.061 -10.000
v -80.000 173.061 -10.000
v -70.000 173.061 -10.000
v -60.000 173.061 -10.000
v -50.000 173.061 -10.000
v -40.000 173.061 -10.000
v -30.000 173.061 -10.000
v -20.000 173.061 -10.000
v -10.000 173.061 -10.000
v -90.000 160.612 -10.000
v -80.000 160.612 -10.000
v -70.000 160.612 -10.000
v -60.000 160.612 -10.000
v -50.000 160.612 -10.000
v -40.000 160.612 -10.000
v -30.000 160.612 -10.000
v -20.000 160.612 -10.000
v -10.000 160.612 -10.000
v -90.000 148.163 -10.000
v -80.000 148.163 -10.000
v -70.000 148.163 -10.000
v -60.000 148.163 -10.000
v -50.000 148.163 -10.000
v -40.000 148.163 -10.000
v -30.000 148.163 -10.000
v -20.000 148.163 -10.000
v -10.000 148.163 -10.000
v -90.000 135.714 0.000
v -80.000 135.714 0.000
v -70.000 135.714 0.000
v -60.000 135.714 0.000
v -50.000 135.714 0.000
v -40.000 135.714 0.000
v -30.000 135.714 0.000
v -20.000 135.714 0.000
v -10.000 135.714 0.000
v -90.000 123.265 10.000
v -80.000 123.265 10.000
v -70.000 123.265 10.000
v -60.000 123.265 10.000
v -50.000 123.265 10.000
v -40.000 123.265 10.000
v -30.000 123.265 10.000
v -20.000 123.265 10.000
v -10.000 123.265 10.000
v -90.000 110.816 20.000
v -80.000 110.816 20.000
v -70.000 110.816 20.000
v -60.000 110.816 20.000
v -50.000 110.816 20.000
v -40.000 110.816 20.000
v -30.000 110.816 20.000
v -20.000 110.816 20.000
v -10.000 110.816 20.000
v -90.000 98.367 30.000
v -80.000 98.367 30.000
v -70.000 98.367 30.000
v -60.000 98.367 30.000
v -50.000 98.367 30.000
v -40.000 98.367 30.000
v -30.000 98.367 30.000
v -20.000 98.367 30.000
v -10.000 98.367 30.000
v -90.000 85.918 40.000
v -80.000 85.918 40.000
v -70.000 85.918 40.000
v -60.000 85.918 40.000
v -50.000 85.918 40.000
v -40.000 85.918 40.000
v -30.000 85.918 40.000
v -20.000 85.918 40.000
v -10.000 85.918 40.000
v -90.000 73.469 50.000
v -80.000 73.469 50.000
v -70.000 73.469 50.000
v -60.000 73.469 50.000
v -50.000 73.469 50.000
v -40.000 73.469 50.000
v -30.000 73.469 50.000
v -20.000 73.469 50.000
v -10.000 73.469 50.000
v -90.000 61.020 60.000
v -80.000 61.020 60.000
v -70.000 61.020 60.000
v -60.000 61.020 60.000
v -50.000 61.020 60.000
v -40.000 61.020 60.000
v -30.000 61.020 60.000
v -20.000 61.020 60.000
v -10.000 61.020 60.000
v -90.000 48.571 70.000
v -80.000 48.571 70.000
v -70.000 48.571 70.000
v -60.000 48.571 70.000
v -50.000 48.571 70.000
v -40.000 48.571 70.000
v -30.000 48.571 70.000
v -20.000 48.571 70.000
v -10.000 48.571 70.000
v -90.000 36.122 80.000
v -80.000 36.122 80.000
v -70.000 36.122 80.000
v -60.000 36.122 80.000
v -50.000 36.122 80.000
v -40.000 36.122 80.000
v -30.000 36.122 80.000
v -20.000 36.122 80.000
v -10.000 36.122 80.000
v -90.000 23.673 90.000
v -80.000 23.673 90.000
v -70.000 23.673 90.000
v -60.000 23.673 90.000
v -50.000 23.673 90.000
v -40.000 23.673 90.000
v -30.000 23.673 90.000
v -20.000 23.673 90.000
v -10.000 23.673 90.000
v -90.000 11.224 100.000
v -80.000 11.224 100.000
v -70.000 11.224 100.000
v -60.000 11.224 100.000
v -50.000 11.224 100.000
v -40.000 11.224 100.000
v -30.000 11.224 100.000
v -20.000 11.224 100.000
v -10.000 11.224 100.000
v -90.000 -1.224 110.000
v -80.000 -1.224 110.000
v -70.000 -1.224 110.000
v -60.000 -1.224 110.000
v -50.000 -1.224 110.000
v -40.000 -1.224 110.000
v -30.000 -1.224 110.000
v -20.000 -1.224 110.000
v -10.000 -1.224 110.000
v -90.000 -13.673 120.000
v -80.000 -13.673 120.000
v -70.000 -13.673 120.000
v -60.000 -13.673 120.000
v -50.000 -13.673 120.000
v -40.000 -13.673 120.000
v -30.000 -13.673 120.000
v -20.000 -13.673 120.000
v -10.000 -13.673 120.000
v -90.000 -26.122 130.000
v -80.000 -26.122 130.000
v -70.000 -26.122 130.000
v -60.000 -26.122 130.000
v -50.000 -26.122 130.000
v -40.000 -26.122 130.000
v -30.000 -26.122 130.000
v -20.000 -26.122 130.000
v -10.000 -26.122 130.000
v -90.000 -38.571 140.000
v -80.000 -38.571 140.000
v -70.000 -38.571 140.000
v -60.000 -38.571 140.000
v -50.000 -38.571 140.000
v -40.000 -38.571 140.000
v -30.000 -38.571 140.000
v -20.000 -38.571 140.000
v -10.000 -38.571 140.000
v -90.000 -51.020 150.000
v -80.000 -51.020 150.000
v -70.000 -51.020 150.000
v -60.000 -51.020 150.000
v -50.000 -51.020 150.000
v -40.000 -51.020 150.000
v -30.000 -51.020 150.000
v -20.000 -51.020 150.000
v -10.000 -51.020 150.000
v -90.000 -63.469 160.000
v -80.000 -63.469 160.000
v -70.000 -63.469 160.000
v -60.000 -63.469 160.000
v -50.000 -63.469 160.000
v -40.000 -63.469 160.000
v -30.000 -63.469 160.000
v -20.000 -63.469 160.000
v -10.000 -63.469 160.000
v -90.000 -75.918 170.000
v -80.000 -75.918 170.000
v -70.000 -75.918 170.000
v -60.000 -75.918 170.000
v -50.000 -75.918 170.000
v -40.000 -75.918 170.000
v -30.000 -75.918 170.000
v -20.000 -75.918 170.000
v -10.000 -75.918 170.000
v -90.000 -88.367 180.000
v -80.000 -88.367 180.000
v -70.000 -88.367 180.000
v -60.000 -88.367 180.000
v -50.000 -88.367 180.000
v -40.000 -88.367 180.000
v -30.000 -88.367 180.000
v -20.000 -88.367 180.000
v -10.000 -88.367 180.000
v -90.000 -100.816 190.000
v -80.000 -100.816 190.000
v -70.000 -100.816 190.000
v -60.000 -100.816 190.000
v -50.000 -100.816 190.000
v -40.000 -100.816 190.000
v -30.000 -100.816 190.000
v -20.000 -100.816 190.000
v -10.000 -100.816 190.000
v -90.000 -113.265 200.000
v -80.000 -113.265 200.000
v -70.000 -113.265 200.000
v -60.000 -113.265 200.000
v -50.000 -113.265 200.000
v -40.000 -113.265 200.000
v -30.000 -113.265 200.000
v -20.000 -113.265 200.000
v -10.000 -113.265 200.000
v -90.000 -125.714 210.000
v -80.000 -125.714 210.000
v -70.000 -125.714 210.000
v -60.000 -125.714 210.000
v -50.000 -125.714 210.000
v -40.000 -125.714 210.000
v -30.000 -125.714 210.000
v -20.000 -125.714 210.000
v -10.000 -125.714 210.000
v -90.000 -138.163 220.000
v -80.000 -138.163 220.000
v -70.000 -138.163 220.000
v -60.000 -138.163 220.000
v -50.000 -138.163 220.000
v -40.000 -138.163 220.000
v -30.000 -138.163 220.000
v -20.000 -138.163 220.000
v -10.000 -138.163 220.000
v -90.000 -150.612 230.000
v -80.000 -150.612 230.000
v -70.000 -150.612 230.000
v -60.000 -150.612 230.000
v -50.000 -150.612 230.000
v -40.000 -150.612 230.000
v -30.000 -150.612 230.000
v -20.000 -150.612 230.000
v -10.000 -150.612 230.000
v -90.000 -163.061 230.000
v -80.000 -163.061 230.000
v -70.000 -163.061 230.000
v -60.000 -163.061 230.000
v -50.000 -163.061 230.000
v -40.000 -163.061 230.000
v -30.000 -163.061 230.000
v -20.000 -163.061 230.000
v -10.000 -163.061 230.000
v -90.000 -175.510 230.000
v -80.000 -175.510 230.000
v -70.000 -175.510 230.000
v -60.000 -175.510 230.000
v -50.000 -175.510 230.000
v -40.000 -175.510 230.000
v -30.000 -175.510 230.000
v -20.000 -175.510 230.000
v -10.000 -175.510 230.000
v -90.000 -187.959 230.000
v -80.000 -187.959 230.000
v -70.000 -187.959 230.000
v -60.000 -187.959 230.000
v -50.000 -187.959 230.000
v -40.000 -187.959 230.000
v -30.000 -187.959 230.000
v -20.000 -187.959 230.000
v -10.000 -187.959 230.000
v -90.000 -200.408 230.000
v -80.000 -200.408 230.000
v -70.000 -200.408 230.000
v -60.000 -200.408 230.000
v -50.000 -200.408 230.000
v -40.000 -200.408 230.000
v -30.000 -200.408 230.000
v -20.000 -200.408 230.000
v -10.000 -200.408 230.000
v -90.000 -212.857 230.000
v -80.000 -212.857 230.000
v -70.000 -212.857 230.000
v -60.000 -212.857 230.000
v -50.000 -212.857 230.000
v -40.000 -212.857 230.000
v -30.000 -212.857 230.000
v -20.000 -212.857 230.000
v -10.000 -212.857 230.000
v -90.000 -225.306 230.000
v -80.000 -225.306 230.000
v -70.000 -225.306 230.000
v -60.000 -225.306 230.000
v -50.000 -225.306 230.000
v -40.000 -225.306 230.000
v -30.000 -225.306 230.000
v -20.000 -225.306 230.000
v -10.000 -225.306 230.000
v -90.000 -237.755 230.000
v -80.000 -237.755 230.000
v -70.000 -237.755 230.000
v -60.000 -237.755 230.000
v -50.000 -237.755 230.000
v -40.000 -237.755 230.000
v -30.000 -237.755 230.000
v -20.000 -237.755 230.000
v -10.000 -237.755 230.000
v -90.000 -250.204 230.000
v -80.000 -250.204 230.000
v -70.000 -250.204 230.000
v -60.000 -250.204 230.000
v -50.000 -250.204 230.000
v -40.000 -250.204 230.000
v -30.000 -250.204 230.000
v -20.000 -250.204 230.000
v -10.000 -250.204 230.000
v -90.000 -262.653 230.000
v -80.000 -262.653 230.000
v -70.000 -262.653 230.000
v -60.000 -262.653 230.000
v -50.000 -262.653 230.000
v -40.000 -262.653 230.000
v -30.000 -262.653 230.000
v -20.000 -262.653 230.000
v -10.000 -262.653 230.000
v -90.000 -275.102 230.000
v -80.000 -275.102 230.000
v -70.000 -275.102 230.000
v -60.000 -275.102 230.000
v -50.000 -275.102 230.000
v -40.000 -275.102 230.000
v -30.000 -275.102 230.000
v -20.000 -275.102 230.000
v -10.000 -275.102 230.000
v -90.000 -287.551 230.000
v -80.000 -287.551 230.000
v -70.000 -287.551 230.000
v -60.000 -287.551 230.000
v -50.000 -287.551 230.000
v -40.000 -287.551 230.000
v -30.000 -287.551 230.000
v -20.000 -287.551 230.000
v -10.000 -287.551 230.000
v -90.000 297.551 -1.388
v -80.000 297.551 -1.388
v -70.000 297.551 -1.388
v -60.000 297.551 -1.388
v -50.000 297.551 -1.388
v -40.000 297.551 -1.388
v -30.000 297.551 -1.388
v -20.000 297.551 -1.388
v -10.000 297.551 -1.388
v -90.000 285.102 -1.388
v -80.000 285.102 -1.388
v -70.000 285.102 -1.388
v -60.000 285.102 -1.388
v -50.000 285.102 -1.388
v -40.000 285.102 -1.388
v -30.000 285.102 -1.388
v -20.000 285.102 -1.388
v -10.000 285.102 -1.388
v -90.000 272.653 -1.388
v -80.000 272.653 -1.388
v -70.000 272.653 -1.388
v -60.000 272.653 -1.388
v -50.000 272.653 -1.388
v -40.000 272.653 -1.388
v -30.000 272.653 -1.388
v -20.000 272.653 -1.388
v -10.000 272.653 -1.388
v -90.000 260.204 -1.388
v -80.000 260.204 -1.388
v -70.000 260.204 -1.388
v -60.000 260.204 -1.388
v -50.000 260.204 -1.388
v -40.000 260.204 -1.388
v -30.000 260.204 -1.388
v -20.000 260.204 -1.388
v -10.000 260.204 -1.388
v -90.000 247.755 -1.388
v -80.000 247.755 -1.388
v -70.000 247.755 -1.388
v -60.000 247.755 -1.388
v -50.000 247.755 -1.388
v -40.000 247.755 -1.388
v -30.000 247.755 -1.388
v -20.000 247.755 -1.388
v -10.000 247.755 -1.388
v -90.000 235.306 -1.388
v -80.000 235.306 -1.388
v -70.000 235.306 -1.388
v -60.000 235.306 -1.388
v -50.000 235.306 -1.388
v -40.000 235.306 -1.388
v -30.000 235.306 -1.388
v -20.000 235.306 -1.388
v -10.000 235.306 -1.388
v -90.000 222.857 -1.388
v -80.000 222.857 -1.388
v -70.000 222.857 -1.388
v -60.000 222.857 -1.388
v -50.000 222.857 -1.388
v -40.000 222.857 -1.388
v -30.000 222.857 -1.388
v -20.000 222.857 -1.388
v -10.000 222.857 -1.388
v -90.000 210.408 -1.388
v -80.000 210.408 -1.388
v -70.000 210.408 -1.388
v -60.000 210.408 -1.388
v -50.000 210.408 -1.388
v -40.000 210.408 -1.388
v -30.000 210.408 -1.388
v -20.000 210.408 -1.388
v -10.000 210.408 -1.388
v -90.000 197.959 -1.388
v -80.000 197.959 -1.388
v -70.000 197.959 -1.388
v -60.000 197.959 -1.388
v -50.000 197.959 -1.388
v -40.000 197.959 -1.388
v -30.000 197.959 -1.388
v -20.000 197.959 -1.388
v -10.000 197.959 -1.388
v -90.000 185.510 -1.388
v -80.000 185.510 -1.388
v -70.000 185.510 -1.388
v -60.000 185.510 -1.388
v -50.000 185.510 -1.388
v -40.000 185.510 -1.388
v -30.000 185.510 -1.388
v -20.000 185.510 -1.388
v -10.000 185.510 -1.388
v -90.000 173.061 -1.388
v -80.000 173.061 -1.388
v -70.000 173.061 -1.388
v -60.000 173.061 -1.388
v -50.000 173.061 -1.388
v -40.000 173.061 -1.388
v -30.000 173.061 -1.388
v -20.000 173.061 -1.388
v -10.000 173.061 -1.388
v -90.000 160.612 -1.388
v -80.000 160.612 -1.388
v -70.000 160.612 -1.388
v -60.000 160.612 -1.388
v -50.000 160.612 -1.388
v -40.000 160.612 -1.388
v -30.000 160.612 -1.388
v -20.000 160.612 -1.388
v -10.000 160.612 -1.388
v -90.000 148.163 -1.388
v -80.000 148.163 -1.388
v -70.000 148.163 -1.388
v -60.000 148.163 -1.388
v -50.000 148.163 -1.388
v -40.000 148.163 -1.388
v -30.000 148.163 -1.388
v -20.000 148.163 -1.388
v -10.000 148.163 -1.388
v -90.000 135.714 8.612
v -80.000 135.714 8.612
v -70.000 135.714 8.612
v -60.000 135.714 8.612
v -50.000 135.714 8.612
v -40.000 135.714 8.612
v -30.000 135.714 8.612
v -20.000 135.714 8.612
v -10.000 135.714 8.612
v -90.000 123.265 18.612
v -80.000 123.265 18.612
v -70.000 123.265 18.612
v -60.000 123.265 18.612
v -50.000 123.265 18.612
v -40.000 123.265 18.612
v -30.000 123.265 18.612
v -20.000 123.265 18.612
v -10.000 123.265 18.612
v -90.000 110.816 28.612
v -80.000 110.816 28.612
v -70.000 110.816 28.612
v -60.000 110.816 28.612
v -50.000 110.816 28.612
v -40.000 110.816 28.612
v -30.000 110.816 28.612
v -20.000 110.816 28.612
v -10.000 110.816 28.612
v -90.000 98.367 38.612
v -80.000 98.367 38.612
v -70.000 98.367 38.612
v -60.000 98.367 38.612
v -50.000 98.367 38.612
v -40.000 98.367 38.612
v -30.000 98.367 38.612
v -20.000 98.367 38.612
v -10.000 98.367 38.612
v -90.000 85.918 48.612
v -80.000 85.918 48.612
v -70.000 85.918 48.612
v -60.000 85.918 48.612
v -50.000 85.918 48.612
v -40.000 85.918 48.612
v -30.000 85.918 48.612
v -20.000 85.918 48.612
v -10.000 85.918 48.612
v -90.000 73.469 58.612
v -80.000 73.469 58.612
v -70.000 73.469 58.612
v -60.000 73.469 58.612
v -50.000 73.469 58.612
v -40.000 73.469 58.612
v -30.000 73.469 58.612
v -20.000 73.469 58.612
v -10.000 73.469 58.612
v -90.000 61.020 68.612
v -80.000 61.020 68.612
v -70.000 61.020 68.612
v -60.000 61.020 68.612
v -50.000 61.020 68.612
v -40.000 61.020 68.612
v -30.000 61.020 68.612
v -20.000 61.020 68.612
v -10.000 61.020 68.612
v -90.000 48.571 78.612
v -80.000 48.571 78.612
v -70.000 48.571 78.612
v -60.000 48.571 78.612
v -50.000 48.571 78.612
v -40.000 48.571 78.612
v -30.000 48.571 78.612
v -20.000 48.571 78.612
v -10.000 48.571 78.612
v -90.000 36.122 88.612
v -80.000 36.122 88.612
v -70.000 36.122 88.612
v -60.000 36.122 88.612
v -50.000 36.122 88.612
v -40.000 36.122 88.612
v -30.000 36.122 88.612
v -20.000 36.122 88.612
v -10.000 36.122 88.612
v -90.000 23.673 98.612
v -80.000 23.673 98.612
v -70.000 23.673 98.612
v -60.000 23.673 98.612
v -50.000 23.673 98.612
v -40.000 23.673 98.612
v -30.000 23.673 98.612
v -20.000 23.673 98.612
v -10.000 23.673 98.612
v -90.000 11.224 108.612
v -80.000 11.224 108.612
v -70.000 11.224 108.612
v -60.000 11.224 108.612
v -50.000 11.224 108.612
v -40.000 11.224 108.612
v -30.000 11.224 108.612
v -20.000 11.224 108.612
v -10.000 11.224 108.612
v -90.000 -1.224 118.612
v -80.000 -1.224 118.612
v -70.000 -1.224 118.612
v -60.000 -1.224 118.612
v -50.000 -1.224 118.612
v -40.000 -1.224 118.612
v -30.000 -1.224 118.612
v -20.000 -1.224 118.612
v -10.000 -1.224 118.612
v -90.000 -13.673 128.612
v -80.000 -13.673 128.612
v -70.000 -13.673 128.612
v -60.000 -13.673 128.612
v -50.000 -13.673 128.612
v -40.000 -13.673 128.612
v -30.000 -13.673 128.612
v -20.000 -13.673 128.612
v -10.000 -13.673 128.612
v -90.000 -26.122 138.612
v -80.000 -26.122 138.612
v -70.000 -26.122 138.612
v -60.000 -26.122 138.612
v -50.000 -26.122 138.612
v -40.000 -26.122 138.612
v -30.000 -26.122 138.612
v -20.000 -26.122 138.612
v -10.000 -26.122 138.612
v -90.000 -38.571 148.612
v -80.000 -38.571 148.612
v -70.000 -38.571 148.612
v -60.000 -38.571 148.612
v -50.000 -38.571 148.612
v -40.000 -38.571 148.612
v -30.000 -38.571 148.612
v -20.000 -38.571 148.612
v -10.000 -38.571 148.612
v -90.000 -51.020 158.612
v -80.000 -51.020 158.612
v -70.000 -51.020 158.612
v -60.000 -51.020 158.612
v -50.000 -51.020 158.612
v -40.000 -51.020 158.612
v -30.000 -51.020 158.612
v -20.000 -51.020 158.612
v -10.000 -51.020 158.612
v -90.000 -63.469 168.612
v -80.000 -63.469 168.612
v -70.000 -63.469 168.612
v -60.000 -63.469 168.612
v -50.000 -63.469 168.612
v -40.000 -63.469 168.612
v -30.000 -63.469 168.612
v -20.000 -63.469 168.612
v -10.000 -63.469 168.612
v -90.000 -75.918 178.612
v -80.000 -75.918 178.612
v -70.000 -75.918 178.612
v -60.000 -75.918 178.612
v -50.000 -75.918 178.612
v -40.000 -75.918 178.612
v -30.000 -75.918 178.612
v -20.000 -75.918 178.612
v -10.000 -75.918 178.612
v -90.000 -88.367 188.612
v -80.000 -88.367 188.612
v -70.000 -88.367 188.612
v -60.000 -88.367 188.612
v -50.000 -88.367 188.612
v -40.000 -88.367 188.612
v -30.000 -88.367 188.612
v -20.000 -88.367 188.612
v -10.000 -88.367 188.612
v -90.000 -100.816 198.612
v -80.000 -100.816 198.612
v -70.000 -100.816 198.612
v -60.000 -100.816 198.612
v -50.000 -100.816 198.612
v -40.000 -100.816 198.612
v -30.000 -100.816 198.612
v -20.000 -100.816 198.612
v -10.000 -100.816 198.612
v -90.000 -113.265 208.612
v -80.000 -113.265 208.612
v -70.000 -113.265 208.612
v -60.000 -113.265 208.612
v -50.000 -113.265 208.612
v -40.000 -113.265 208.612
v -30.000 -113.265 208.612
v -20.000 -113.265 208.612
v -10.000 -113.265 208.612
v -90.000 -125.714 218.612
v -80.000 -125.714 218.612
v -70.000 -125.714 218.612
v -60.000 -125.714 218.612
v -50.000 -125.714 218.612
v -40.000 -125.714 218.612
v -30.000 -125.714 218.612
v -20.000 -125.714 218.612
v -10.000 -125.714 218.612
v -90.000 -138.163 228.612
v -80.000 -138.163 228.612
v -70.000 -138.163 228.612
v -60.000 -138.163 228.612
v -50.000 -138.163 228.612
v -40.000 -138.163 228.612
v -30.000 -138.163 228.612
v -20.000 -138.163 228.612
v -10.000 -138.163 228.612
v -90.000 -150.612 238.612
v -80.000 -150.612 238.612
v -70.000 -150.612 238.612
v -60.000 -150.612 238.612
v -50.000 -150.612 238.612
v -40.000 -150.612 238.612
v -30.000 -150.612 238.612
v -20.000 -150.612 238.612
v -10.000 -150.612 238.612
v -90.000 -163.061 238.612
v -80.000 -163.061 238.612
v -70.000 -163.061 238.612
v -60.000 -163.061 238.612
v -50.000 -163.061 238.612
v -40.000 -163.061 238.612
v -30.000 -163.061 238.612
v -20.000 -163.061 238.612
v -10.000 -163.061 238.612
v -90.000 -175.510 238.612
v -80.000 -175.510 238.612
v -70.000 -175.510 238.612
v -60.000 -175.510 238.612
v -50.000 -175.510 238.612
v -40.000 -175.510 238.612
v -30.000 -175.510 238.612
v -20.000 -175.510 238.612
v -10.000 -175.510 238.612
v -90.000 -187.959 238.612
v -80.000 -187.959 238.612
v -70.000 -187.959 238.612
v -60.000 -187.959 238.612
v -50.000 -187.959 238.612
v -40.000 -187.959 238.612
v -30.000 -187.959 238.612
v -20.000 -187.959 238.612
v -10.000 -187.959 238.612
v -90.000 -200.408 238.612
v -80.000 -200.408 238.612
v -70.000 -200.408 238.612
v -60.000 -200.408 238.612
v -50.000 -200.408 238.612
v -40.000 -200.408 238.612
v -30.000 -200.408 238.612
v -20.000 -200.408 238.612
v -10.000 -200.408 238.612
v -90.000 -212.857 238.612
v -80.000 -212.857 238.612
v -70.000 -212.857 238.612
v -60.000 -212.857 238.612
v -50.000 -212.857 238.612
v -40.000 -212.857 238.612
v -30.000 -212.857 238.612
v -20.000 -212.857 238.612
v -10.000 -212.857 238.612
v -90.000 -225.306 238.612
v -80.000 -225.306 238.612
v -70.000 -225.306 238.612
v -60.000 -225.306 238.612
v -50.000 -225.306 238.612
v -40.000 -225.306 238.612
v -30.000 -225.306 238.612
v -20.000 -225.306 238.612
v -10.000 -225.306 238.612
v -90.000 -237.755 238.612
v -80.000 -237.755 238.612
v -70.000 -237.755 238.612
v -60.000 -237.755 238.612
v -50.000 -237.755 238.612
v -40.000 -237.755 238.612
v -30.000 -237.755 238.612
v -20.000 -237.755 238.612
v -10.000 -237.755 238.612
v -90.000 -250.204 238.612
v -80.000 -250.204 238.612
v -70.000 -250.204 238.612
v -60.000 -250.204 238.612
v -50.000 -250.204 238.612
v -40.000 -250.204 238.612
v -30.000 -250.204 238.612
v -20.000 -250.204 238.612
v -10.000 -250.204 238.612
v -90.000 -262.653 238.612
v -80.000 -262.653 238.612
v -70.000 -262.653 238.612
v -60.000 -262.653 238.612
v -50.000 -262.653 238.612
v -40.000 -262.653 238.612
v -30.000 -262.653 238.612
v -20.000 -262.653 238.612
v -10.000 -262.653 238.612
v -90.000 -275.102 238.612
v -80.000 -275.102 238.612
v -70.000 -275.102 238.612
v -60.000 -275.102 238.612
v -50.000 -275.102 238.612
v -40.000 -275.102 238.612
v -30.000 -275.102 238.612
v -20.000 -275.102 238.612
v -10.000 -275.102 238.612
v -90.000 -287.551 238.612
v -80.000 -287.551 238.612
v -70.000 -287.551 238.612
v -60.000 -287.551 238.612
v -50.000 -287.551 238.612
v -40.000 -287.551 238.612
v -30.000 -287.551 238.612
v -20.000 -287.551 238.612
v -10.000 -287.551 238.612
v -100.000 310.000 -10.000
v -100.000 297.551 -10.000
v -90.000 310.000 -10.000
v -80.000 310.000 -10.000
v -70.000 310.000 -10.000
v -60.000 310.000 -10.000
v -50.000 310.000 -10.000
v -40.000 310.000 -10.000
v -30.000 310.000 -10.000
v -20.000 310.000 -10.000
v -10.000 310.000 -10.000
v 0.000 297.551 -10.000
v 0.000 310.000 -10.000
v -100.000 285.102 -10.000
v 0.000 285.102 -10.000
v -100.000 272.653 -10.000
v 0.000 272.653 -10.000
v -100.000 260.204 -10.000
v 0.000 260.204 -10.000
v -100.000 247.755 -10.000
v 0.000 247.755 -10.000
v -100.000 235.306 -10.000
v 0.000 235.306 -10.000
v -100.000 222.857 -10.000
v 0.000 222.857 -10.000
v -100.000 210.408 -10.000
v 0.000 210.408 -10.000
v -100.000 197.959 -10.000
v 0.000 197.959 -10.000
v -100.000 185.510 -10.000
v 0.000 185.510 -10.000
v -100.000 173.061 -10.000
v 0.000 173.061 -10.000
v -100.000 160.612 -10.000
v 0.000 160.612 -10.000
v -100.000 148.163 -10.000
v 0.000 148.163 -10.000
v -100.000 135.714 0.000
v 0.000 135.714 0.000
v -100.000 123.265 10.000
v 0.000 123.265 10.000
v -100.000 110.816 20.000
v 0.000 110.816 20.000
v -100.000 98.367 30.000
v 0.000 98.367 30.000
v -100.000 85.918 40.000
v 0.000 85.918 40.000
v -100.000 73.469 50.000
v 0.000 73.469 50.000
v -100.000 61.020 60.000
v 0.000 61.020 60.000
v -100.000 48.571 70.000
v 0.000 48.571 70.000
v -100.000 36.122 80.000
v 0.000 36.122 80.000
v -100.000 23.673 90.000
v 0.000 23.673 90.000
v -100.000 11.224 100.000
v 0.000 11.224 100.000
v -100.000 -1.224 110.000
v 0.000 -1.224 110.000
v -100.000 -13.673 120.000
v 0.000 -13.673 120.000
v -100.000 -26.122 130.000
v 0.000 -26.122 130.000
v -100.000 -38.571 140.000
v 0.000 -38.571 140.000
v -100.000 -51.020 150.000
v 0.000 -51.020 150.000
v -100.000 -63.469 160.000
v 0.000 -63.469 160.000
v -100.000 -75.918 170.000
v 0.000 -75.918 170.000
v -100.000 -88.367 180.000
v 0.000 -88.367 180.000
v -100.000 -100.816 190.000
v 0.000 -100.816 190.000
v -100.000 -113.265 200.000
v 0.000 -113.265 200.000
v -100.000 -125.714 210.000
v 0.000 -125.714 210.000
v -100.000 -138.163 220.000
v 0.000 -138.163 220.000
v -100.000 -150.612 230.000
v 0.000 -150.612 230.000
v -100.000 -163.061 230.000
v 0.000 -163.061 230.000
v -100.000 -175.510 230.000
v 0.000 -175.510 230.000
v -100.000 -187.959 230.000
v 0.000 -187.959 230.000
v -100.000 -200.408 230.000
v 0.000 -200.408 230.000
v -100.000 -212.857 230.000
v 0.000 -212.857 230.000
v -100.000 -225.306 230.000
v 0.000 -225.306 230.000
v -100.000 -237.755 230.000
v 0.000 -237.755 230.000
v -100.000 -250.204 230.000
v 0.000 -250.204 230.000
v -100.000 -262.653 230.000
v 0.000 -262.653 230.000
v -100.000 -275.102 230.000
v 0.000 -275.102 230.000
v -100.000 -287.551 230.000
v 0.000 -287.551 230.000
v -100.000 310.000 -1.388
v -90.000 310.000 -1.388
v -100.000 297.551 -1.388
v -80.000 310.000 -1.388
v -70.000 310.000 -1.388
v -60.000 310.000 -1.388
v -50.000 310.000 -1.388
v -40.000 310.000 -1.388
v -30.000 310.000 -1.388
v -20.000 310.000 -1.388
v -10.000 310.000 -1.388
v 0.000 310.000 -1.388
v 0.000 297.551 -1.388
v -100.000 285.102 -1.388
v 0.000 285.102 -1.388
v -100.000 272.653 -1.388
v 0.000 272.653 -1.388
v -100.000 260.204 -1.388
v 0.000 260.204 -1.388
v -100.000 247.755 -1.388
v 0.000 247.755 -1.388
v -100.000 235.306 -1.388
v 0.000 235.306 -1.388
v -100.000 222.857 -1.388
v 0.000 222.857 -1.388
v -100.000 210.408 -1.388
v 0.000 210.408 -1.388
v -100.000 197.959 -1.388
v 0.000 197.959 -1.388
v -100.000 185.510 -1.388
v 0.000 185.510 -1.388
v -100.000 173.061 -1.388
v 0.000 173.061 -1.388
v -100.000 160.612 -1.388
v 0.000 160.612 -1.388
v -100.000 148.163 -1.388
v 0.000 148.163 -1.388
v -100.000 135.714 8.612
v 0.000 135.714 8.612
v -100.000 123.265 18.612
v 0.000 123.265 18.612
v -100.000 110.816 28.612
v 0.000 110.816 28.612
v -100.000 98.367 38.612
v 0.000 98.367 38.612
v -100.000 85.918 48.612
v 0.000 85.918 48.612
v -100.000 73.469 58.612
v 0.000 73.469 58.612
v -100.000 61.020 68.612
v 0.000 61.020 68.612
v -100.000 48.571 78.612
v 0.000 48.571 78.612
v -100.000 36.122 88.612
v 0.000 36.122 88.612
v -100.000 23.673 98.612
v 0.000 23.673 98.612
v -100.000 11.224 108.612
v 0.000 11.224 108.612
v -100.000 -1.224 118.612
v 0.000 -1.224 118.612
v -100.000 -13.673 128.612
v 0.000 -13.673 128.612
v -100.000 -26.122 138.612
v 0.000 -26.122 138.612
v -100.000 -38.571 148.612
v 0.000 -38.571 148.612
v -100.000 -51.020 158.612
v 0.000 -51.020 158.612
v -100.000 -63.469 168.612
v 0.000 -63.469 168.612
v -100.000 -75.918 178.612
v 0.000 -75.918 178.612
v -100.000 -88.367 188.612
v 0.000 -88.367 188.612
v -100.000 -100.816 198.612
v 0.000 -100.816 198.612
v -100.000 -113.265 208.612
v 0.000 -113.265 208.612
v -100.000 -125.714 218.612
v 0.000 -125.714 218.612
v -100.000 -138.163 228.612
v 0.000 -138.163 228.612
v -100.000 -150.612 238.612
v 0.000 -150.612 238.612
v -100.000 -163.061 238.612
v 0.000 -163.061 238.612
v -100.000 -175.510 238.612
v 0.000 -175.510 238.612
v -100.000 -187.959 238.612
v 0.000 -187.959 238.612
v -100.000 -200.408 238.612
v 0.000 -200.408 238.612
v -100.000 -212.857 238.612
v 0.000 -212.857 238.612
v -100.000 -225.306 238.612
v 0.000 -225.306 238.612
v -100.000 -237.755 238.612
v 0.000 -237.755 238.612
v -100.000 -250.204 238.612
v 0.000 -250.204 238.612
v -100.000 -262.653 238.612
v 0.000 -262.653 238.612
v -100.000 -275.102 238.612
v 0.000 -275.102 238.612
v -100.000 -287.551 238.612
v 0.000 -287.551 238.612
f 2 11 10 1 
f 3 12 11 2 
f 4 13 12 3 
f 5 14 13 4 
f 6 15 14 5 
f 7 16 15 6 
f 8 17 16 7 
f 9 18 17 8 
f 11 20 19 10 
f 12 21 20 11 
f 13 22 21 12 
f 14 23 22 13 
f 15 24 23 14 
f 16 25 24 15 
f 17 26 25 16 
f 18 27 26 17 
f 20 29 28 19 
f 21 30 29 20 
f 22 31 30 21 
f 23 32 31 22 
f 24 33 32 23 
f 25 34 33 24 
f 26 35 34 25 
f 27 36 35 26 
f 29 38 37 28 
f 30 39 38 29 
f 31 40 39 30 
f 32 41 40 31 
f 33 42 41 32 
f 34 43 42 33 
f 35 44 43 34 
f 36 45 44 35 
f 38 47 46 37 
f 39 48 47 38 
f 40 49 48 39 
f 41 50 49 40 
f 42 51 50 41 
f 43 52 51 42 
f 44 53 52 43 
f 45 54 53 44 
f 47 56 55 46 
f 48 57 56 47 
f 49 58 57 48 
f 50 59 58 49 
f 51 60 59 50 
f 52 61 60 51 
f 53 62 61 52 
f 54 63 62 53 
f 56 65 64 55 
f 57 66 65 56 
f 58 67 66 57 
f 59 68 67 58 
f 60 69 68 59 
f 61 70 69 60 
f 62 71 70 61 
f 63 72 71 62 
f 65 74 73 64 
f 66 75 74 65 
f 67 76 75 66 
f 68 77 76 67 
f 69 78 77 68 
f 70 79 78 69 
f 71 80 79 70 
f 72 81 80 71 
f 74 83 82 73 
f 75 84 83 74 
f 76 85 84 75 
f 77 86 85 76 
f 78 87 86 77 
f 79 88 87 78 
f 80 89 88 79 
f 81 90 89 80 
f 83 92 91 82 
f 84 93 92 83 
f 85 94 93 84 
f 86 95 94 85 
f 87 96 95 86 
f 88 97 96 87 
f 89 98 97 88 
f 90 99 98 89 
f 92 101 100 91 
f 93 102 101 92 
f 94 103 102 93 
f 95 104 103 94 
f 96 105 104 95 
f 97 106 105 96 
f 98 107 106 97 
f 99 108 107 98 
f 101 110 109 100 
f 102 111 110 101 
f 103 112 111 102 
f 104 113 112 103 
f 105 114 113 104 
f 106 115 114 105 
f 107 116 115 106 
f 108 117 116 107 
f 110 119 118 109 
f 111 120 119 110 
f 112 121 120 111 
f 113 122 121 112 
f 114 123 122 113 
f 115 124 123 114 
f 116 125 124 115 
f 117 126 125 116 
f 119 128 127 118 
f 120 129 128 119 
f 121 130 129 120 
f 122 131 130 121 
f 123 132 131 122 
f 124 133 132 123 
f 125 134 133 124 
f 126 135 134 125 
f 128 137 136 127 
f 129 138 137 128 
f 130 139 138 129 
f 131 140 139 130 
f 132 141 140 131 
f 133 142 141 132 
f 134 143 142 133 
f 135 144 143 134 
f 137 146 145 136 
f 138 147 146 137 
f 139 148 147 138 
f 140 149 148 139 
f 141 150 149 140 
f 142 151 150 141 
f 143 152 151 142 
f 144 153 152 143 
f 146 155 154 145 
f 147 156 155 146 
f 148 157 156 147 
f 149 158 157 148 
f 150 159 158 149 
f 151 160 159 150 
f 152 161 160 151 
f 153 162 161 152 
f 155 164 163 154 
f 156 165 164 155 
f 157 166 165 156 
f 158 167 166 157 
f 159 168 167 158 
f 160 169 168 159 
f 161 170 169 160 
f 162 171 170 161 
f 164 173 172 163 
f 165 174 173 164 
f 166 175 174 165 
f 167 176 175 166 
f 168 177 176 167 
f 169 178 177 168 
f 170 179 178 169 
f 171 180 179 170 
f 173 182 181 172 
f 174 183 182 173 
f 175 184 183 174 
f 176 185 184 175 
f 177 186 185 176 
f 178 187 186 177 
f 179 188 187 178 
f 180 189 188 179 
f 182 191 190 181 
f 183 192 191 182 
f 184 193 192 183 
f 185 194 193 184 
f 186 195 194 185 
f 187 196 195 186 
f 188 197 196 187 
f 189 198 197 188 
f 191 200 199 190 
f 192 201 200 191 
f 193 202 201 192 
f 194 203 202 193 
f 195 204 203 194 
f 196 205 204 195 
f 197 206 205 196 
f 198 207 206 197 
f 200 209 208 199 
f 201 210 209 200 
f 202 211 210 201 
f 203 212 211 202 
f 204 213 212 203 
f 205 214 213 204 
f 206 215 214 205 
f 207 216 215 206 
f 209 218 217 208 
f 210 219 218 209 
f 211 220 219 210 
f 212 221 220 211 
f 213 222 221 212 
f 214 223 222 213 
f 215 224 223 214 
f 216 225 224 215 
f 218 227 226 217 
f 219 228 227 218 
f 220 229 228 219 
f 221 230 229 220 
f 222 231 230 221 
f 223 232 231 222 
f 224 233 232 223 
f 225 234 233 224 
f 227 236 235 226 
f 228 237 236 227 
f 229 238 237 228 
f 230 239 238 229 
f 231 240 239 230 
f 232 241 240 231 
f 233 242 241 232 
f 234 243 242 233 
f 236 245 244 235 
f 237 246 245 236 
f 238 247 246 237 
f 239 248 247 238 
f 240 249 248 239 
f 241 250 249 240 
f 242 251 250 241 
f 243 252 251 242 
f 245 254 253 244 
f 246 255 254 245 
f 247 256 255 246 
f 248 257 256 247 
f 249 258 257 248 
f 250 259 258 249 
f 251 260 259 250 
f 252 261 260 251 
f 254 263 262 253 
f 255 264 263 254 
f 256 265 264 255 
f 257 266 265 256 
f 258 267 266 257 
f 259 268 267 258 
f 260 269 268 259 
f 261 270 269 260 
f 263 272 271 262 
f 264 273 272 263 
f 265 274 273 264 
f 266 275 274 265 
f 267 276 275 266 
f 268 277 276 267 
f 269 278 277 268 
f 270 279 278 269 
f 272 281 280 271 
f 273 282 281 272 
f 274 283 282 273 
f 275 284 283 274 
f 276 285 284 275 
f 277 286 285 276 
f 278 287 286 277 
f 279 288 287 278 
f 281 290 289 280 
f 282 291 290 281 
f 283 292 291 282 
f 284 293 292 283 
f 285 294 293 284 
f 286 295 294 285 
f 287 296 295 286 
f 288 297 296 287 
f 290 299 298 289 
f 291 300 299 290 
f 292 301 300 291 
f 293 302 301 292 
f 294 303 302 293 
f 295 304 303 294 
f 296 305 304 295 
f 297 306 305 296 
f 299 308 307 298 
f 300 309 308 299 
f 301 310 309 300 
f 302 311 310 301 
f 303 312 311 302 
f 304 313 312 303 
f 305 314 313 304 
f 306 315 314 305 
f 308 317 316 307 
f 309 318 317 308 
f 310 319 318 309 
f 311 320 319 310 
f 312 321 320 311 
f 313 322 321 312 
f 314 323 322 313 
f 315 324 323 314 
f 317 326 325 316 
f 318 327 326 317 
f 319 328 327 318 
f 320 329 328 319 
f 321 330 329 320 
f 322 331 330 321 
f 323 332 331 322 
f 324 333 332 323 
f 326 335 334 325 
f 327 336 335 326 
f 328 337 336 327 
f 329 338 337 328 
f 330 339 338 329 
f 331 340 339 330 
f 332 341 340 331 
f 333 342 341 332 
f 335 344 343 334 
f 336 345 344 335 
f 337 346 345 336 
f 338 347 346 337 
f 339 348 347 338 
f 340 349 348 339 
f 341 350 349 340 
f 342 351 350 341 
f 344 353 352 343 
f 345 354 353 344 
f 346 355 354 345 
f 347 356 355 346 
f 348 357 356 347 
f 349 358 357 348 
f 350 359 358 349 
f 351 360 359 350 
f 353 362 361 352 
f 354 363 362 353 
f 355 364 363 354 
f 356 365 364 355 
f 357 366 365 356 
f 358 367 366 357 
f 359 368 367 358 
f 360 369 368 359 
f 362 371 370 361 
f 363 372 371 362 
f 364 373 372 363 
f 365 374 373 364 
f 366 375 374 365 
f 367 376 375 366 
f 368 377 376 367 
f 369 378 377 368 
f 371 380 379 370 
f 372 381 380 371 
f 373 382 381 372 
f 374 383 382 373 
f 375 384 383 374 
f 376 385 384 375 
f 377 386 385 376 
f 378 387 386 377 
f 380 389 388 379 
f 381 390 389 380 
f 382 391 390 381 
f 383 392 391 382 
f 384 393 392 383 
f 385 394 393 384 
f 386 395 394 385 
f 387 396 395 386 
f 389 398 397 388 
f 390 399 398 389 
f 391 400 399 390 
f 392 401 400 391 
f 393 402 401 392 
f 394 403 402 393 
f 395 404 403 394 
f 396 405 404 395 
f 398 407 406 397 
f 399 408 407 398 
f 400 409 408 399 
f 401 410 409 400 
f 402 411 410 401 
f 403 412 411 402 
f 404 413 412 403 
f 405 414 413 404 
f 407 416 415 406 
f 408 417 416 407 
f 409 418 417 408 
f 410 419 418 409 
f 411 420 419 410 
f 412 421 420 411 
f 413 422 421 412 
f 414 423 422 413 
f 416 425 424 415 
f 417 426 425 416 
f 418 427 426 417 
f 419 428 427 418 
f 420 429 428 419 
f 421 430 429 420 
f 422 431 430 421 
f 423 432 431 422 
f 442 443 434 433 
f 443 444 435 434 
f 444 445 436 435 
f 445 446 437 436 
f 446 447 438 437 
f 447 448 439 438 
f 448 449 440 439 
f 449 450 441 440 
f 451 452 443 442 
f 452 453 444 443 
f 453 454 445 444 
f 454 455 446 445 
f 455 456 447 446 
f 456 457 448 447 
f 457 458 449 448 
f 458 459 450 449 
f 460 461 452 451 
f 461 462 453 452 
f 462 463 454 453 
f 463 464 455 454 
f 464 465 456 455 
f 465 466 457 456 
f 466 467 458 457 
f 467 468 459 458 
f 469 470 461 460 
f 470 471 462 461 
f 471 472 463 462 
f 472 473 464 463 
f 473 474 465 464 
f 474 475 466 465 
f 475 476 467 466 
f 476 477 468 467 
f 478 479 470 469 
f 479 480 471 470 
f 480 481 472 471 
f 481 482 473 472 
f 482 483 474 473 
f 483 484 475 474 
f 484 485 476 475 
f 485 486 477 476 
f 487 488 479 478 
f 488 489 480 479 
f 489 490 481 480 
f 490 491 482 481 
f 491 492 483 482 
f 492 493 484 483 
f 493 494 485 484 
f 494 495 486 485 
f 496 497 488 487 
f 497 498 489 488 
f 498 499 490 489 
f 499 500 491 490 
f 500 501 492 491 
f 501 502 493 492 
f 502 503 494 493 
f 503 504 495 494 
f 505 506 497 496 
f 506 507 498 497 
f 507 508 499 498 
f 508 509 500 499 
f 509 510 501 500 
f 510 511 502 501 
f 511 512 503 502 
f 512 513 504 503 
f 514 515 506 505 
f 515 516 507 506 
f 516 517 508 507 
f 517 518 509 508 
f 518 519 510 509 
f 519 520 511 510 
f 520 521 512 511 
f 521 522 513 512 
f 523 524 515 514 
f 524 525 516 515 
f 525 526 517 516 
f 526 527 518 517 
f 527 528 519 518 
f 528 529 520 519 
f 529 530 521 520 
f 530 531 522 521 
f 532 533 524 523 
f 533 534 525 524 
f 534 535 526 525 
f 535 536 527 526 
f 536 537 528 527 
f 537 538 529 528 
f 538 539 530 529 
f 539 540 531 530 
f 541 542 533 532 
f 542 543 534 533 
f 543 544 535 534 
f 544 545 536 535 
f 545 546 537 536 
f 546 547 538 537 
f 547 548 539 538 
f 548 549 540 539 
f 550 551 542 541 
f 551 552 543 542 
f 552 553 544 543 
f 553 554 545 544 
f 554 555 546 545 
f 555 556 547 546 
f 556 557 548 547 
f 557 558 549 548 
f 559 560 551 550 
f 560 561 552 551 
f 561 562 553 552 
f 562 563 554 553 
f 563 564 555 554 
f 564 565 556 555 
f 565 566 557 556 
f 566 567 558 557 
f 568 569 560 559 
f 569 570 561 560 
f 570 571 562 561 
f 571 572 563 562 
f 572 573 564 563 
f 573 574 565 564 
f 574 575 566 565 
f 575 576 567 566 
f 577 578 569 568 
f 578 579 570 569 
f 579 580 571 570 
f 580 581 572 571 
f 581 582 573 572 
f 582 583 574 573 
f 583 584 575 574 
f 584 585 576 575 
f 586 587 578 577 
f 587 588 579 578 
f 588 589 580 579 
f 589 590 581 580 
f 590 591 582 581 
f 591 592 583 582 
f 592 593 584 583 
f 593 594 585 584 
f 595 596 587 586 
f 596 597 588 587 
f 597 598 589 588 
f 598 599 590 589 
f 599 600 591 590 
f 600 601 592 591 
f 601 602 593 592 
f 602 603 594 593 
f 604 605 596 595 
f 605 606 597 596 
f 606 607 598 597 
f 607 608 599 598 
f 608 609 600 599 
f 609 610 601 600 
f 610 611 602 601 
f 611 612 603 602 
f 613 614 605 604 
f 614 615 606 605 
f 615 616 607 606 
f 616 617 608 607 
f 617 618 609 608 
f 618 619 610 609 
f 619 620 611 610 
f 620 621 612 611 
f 622 623 614 613 
f 623 624 615 614 
f 624 625 616 615 
f 625 626 617 616 
f 626 627 618 617 
f 627 628 619 618 
f 628 629 620 619 
f 629 630 621 620 
f 631 632 623 622 
f 632 633 624 623 
f 633 634 625 624 
f 634 635 626 625 
f 635 636 627 626 
f 636 637 628 627 
f 637 638 629 628 
f 638 639 630 629 
f 640 641 632 631 
f 641 642 633 632 
f 642 643 634 633 
f 643 644 635 634 
f 644 645 636 635 
f 645 646 637 636 
f 646 647 638 637 
f 647 648 639 638 
f 649 650 641 640 
f 650 651 642 641 
f 651 652 643 642 
f 652 653 644 643 
f 653 654 645 644 
f 654 655 646 645 
f 655 656 647 646 
f 656 657 648 647 
f 658 659 650 649 
f 659 660 651 650 
f 660 661 652 651 
f 661 662 653 652 
f 662 663 654 653 
f 663 664 655 654 
f 664 665 656 655 
f 665 666 657 656 
f 667 668 659 658 
f 668 669 660 659 
f 669 670 661 660 
f 670 671 662 661 
f 671 672 663 662 
f 672 673 664 663 
f 673 674 665 664 
f 674 675 666 665 
f 676 677 668 667 
f 677 678 669 668 
f 678 679 670 669 
f 679 680 671 670 
f 680 681 672 671 
f 681 682 673 672 
f 682 683 674 673 
f 683 684 675 674 
f 685 686 677 676 
f 686 687 678 677 
f 687 688 679 678 
f 688 689 680 679 
f 689 690 681 680 
f 690 691 682 681 
f 691 692 683 682 
f 692 693 684 683 
f 694 695 686 685 
f 695 696 687 686 
f 696 697 688 687 
f 697 698 689 688 
f 698 699 690 689 
f 699 700 691 690 
f 700 701 692 691 
f 701 702 693 692 
f 703 704 695 694 
f 704 705 696 695 
f 705 706 697 696 
f 706 707 698 697 
f 707 708 699 698 
f 708 709 700 699 
f 709 710 701 700 
f 710 711 702 701 
f 712 713 704 703 
f 713 714 705 704 
f 714 715 706 705 
f 715 716 707 706 
f 716 717 708 707 
f 717 718 709 708 
f 718 719 710 709 
f 719 720 711 710 
f 721 722 713 712 
f 722 723 714 713 
f 723 724 715 714 
f 724 725 716 715 
f 725 726 717 716 
f 726 727 718 717 
f 727 728 719 718 
f 728 729 720 719 
f 730 731 722 721 
f 731 732 723 722 
f 732 733 724 723 
f 733 734 725 724 
f 734 735 726 725 
f 735 736 727 726 
f 736 737 728 727 
f 737 738 729 728 
f 739 740 731 730 
f 740 741 732 731 
f 741 742 733 732 
f 742 743 734 733 
f 743 744 735 734 
f 744 745 736 735 
f 745 746 737 736 
f 746 747 738 737 
f 748 749 740 739 
f 749 750 741 740 
f 750 751 742 741 
f 751 752 743 742 
f 752 753 744 743 
f 753 754 745 744 
f 754 755 746 745 
f 755 756 747 746 
f 757 758 749 748 
f 758 759 750 749 
f 759 760 751 750 
f 760 761 752 751 
f 761 762 753 752 
f 762 763 754 753 
f 763 764 755 754 
f 764 765 756 755 
f 766 767 758 757 
f 767 768 759 758 
f 768 769 760 759 
f 769 770 761 760 
f 770 771 762 761 
f 771 772 763 762 
f 772 773 764 763 
f 773 774 765 764 
f 775 776 767 766 
f 776 777 768 767 
f 777 778 769 768 
f 778 779 770 769 
f 779 780 771 770 
f 780 781 772 771 
f 781 782 773 772 
f 782 783 774 773 
f 784 785 776 775 
f 785 786 777 776 
f 786 787 778 777 
f 787 788 779 778 
f 788 789 780 779 
f 789 790 781 780 
f 790 791 782 781 
f 791 792 783 782 
f 793 794 785 784 
f 794 795 786 785 
f 795 796 787 786 
f 796 797 788 787 
f 797 798 789 788 
f 798 799 790 789 
f 799 800 791 790 
f 800 801 792 791 
f 802 803 794 793 
f 803 804 795 794 
f 804 805 796 795 
f 805 806 797 796 
f 806 807 798 797 
f 807 808 799 798 
f 808 809 800 799 
f 809 810 801 800 
f 811 812 803 802 
f 812 813 804 803 
f 813 814 805 804 
f 814 815 806 805 
f 815 816 807 806 
f 816 817 808 807 
f 817 818 809 808 
f 818 819 810 809 
f 820 821 812 811 
f 821 822 813 812 
f 822 823 814 813 
f 823 824 815 814 
f 824 825 816 815 
f 825 826 817 816 
f 826 827 818 817 
f 827 828 819 818 
f 829 830 821 820 
f 830 831 822 821 
f 831 832 823 822 
f 832 833 824 823 
f 833 834 825 824 
f 834 835 826 825 
f 835 836 827 826 
f 836 837 828 827 
f 838 839 830 829 
f 839 840 831 830 
f 840 841 832 831 
f 841 842 833 832 
f 842 843 834 833 
f 843 844 835 834 
f 844 845 836 835 
f 845 846 837 836 
f 847 848 839 838 
f 848 849 840 839 
f 849 850 841 840 
f 850 851 842 841 
f 851 852 843 842 
f 852 853 844 843 
f 853 854 845 844 
f 854 855 846 845 
f 856 857 848 847 
f 857 858 849 848 
f 858 859 850 849 
f 859 860 851 850 
f 860 861 852 851 
f 861 862 853 852 
f 862 863 854 853 
f 863 864 855 854 
f 867 1 866 865 
f 868 2 1 867 
f 869 3 2 868 
f 870 4 3 869 
f 871 5 4 870 
f 872 6 5 871 
f 873 7 6 872 
f 874 8 7 873 
f 875 9 8 874 
f 877 876 9 875 
f 1 10 878 866 
f 876 879 18 9 
f 10 19 880 878 
f 879 881 27 18 
f 19 28 882 880 
f 881 883 36 27 
f 28 37 884 882 
f 883 885 45 36 
f 37 46 886 884 
f 885 887 54 45 
f 46 55 888 886 
f 887 889 63 54 
f 55 64 890 888 
f 889 891 72 63 
f 64 73 892 890 
f 891 893 81 72 
f 73 82 894 892 
f 893 895 90 81 
f 82 91 896 894 
f 895 897 99 90 
f 91 100 898 896 
f 897 899 108 99 
f 100 109 900 898 
f 899 901 117 108 
f 109 118 902 900 
f 901 903 126 117 
f 118 127 904 902 
f 903 905 135 126 
f 127 136 906 904 
f 905 907 144 135 
f 136 145 908 906 
f 907 909 153 144 
f 145 154 910 908 
f 909 911 162 153 
f 154 163 912 910 
f 911 913 171 162 
f 163 172 914 912 
f 913 915 180 171 
f 172 181 916 914 
f 915 917 189 180 
f 181 190 918 916 
f 917 919 198 189 
f 190 199 920 918 
f 919 921 207 198 
f 199 208 922 920 
f 921 923 216 207 
f 208 217 924 922 
f 923 925 225 216 
f 217 226 926 924 
f 925 927 234 225 
f 226 235 928 926 
f 927 929 243 234 
f 235 244 930 928 
f 929 931 252 243 
f 244 253 932 930 
f 931 933 261 252 
f 253 262 934 932 
f 933 935 270 261 
f 262 271 936 934 
f 935 937 279 270 
f 271 280 938 936 
f 937 939 288 279 
f 280 289 940 938 
f 939 941 297 288 
f 289 298 942 940 
f 941 943 306 297 
f 298 307 944 942 
f 943 945 315 306 
f 307 316 946 944 
f 945 947 324 315 
f 316 325 948 946 
f 947 949 333 324 
f 325 334 950 948 
f 949 951 342 333 
f 334 343 952 950 
f 951 953 351 342 
f 343 352 954 952 
f 953 955 360 351 
f 352 361 956 954 
f 955 957 369 360 
f 361 370 958 956 
f 957 959 378 369 
f 370 379 960 958 
f 959 961 387 378 
f 379 388 962 960 
f 961 963 396 387 
f 388 397 964 962 
f 963 965 405 396 
f 397 406 966 964 
f 965 967 414 405 
f 406 415 968 966 
f 967 969 423 414 
f 415 424 970 968 
f 969 971 432 423 
f 972 973 867 865 
f 974 433 973 972 
f 866 974 972 865 
f 433 434 975 973 
f 973 975 868 867 
f 434 435 976 975 
f 975 976 869 868 
f 435 436 977 976 
f 976 977 870 869 
f 436 437 978 977 
f 977 978 871 870 
f 437 438 979 978 
f 978 979 872 871 
f 438 439 980 979 
f 979 980 873 872 
f 439 440 981 980 
f 980 981 874 873 
f 440 441 982 981 
f 981 982 875 874 
f 982 983 877 875 
f 441 984 983 982 
f 983 984 876 877 
f 985 442 433 974 
f 878 985 974 866 
f 450 986 984 441 
f 984 986 879 876 
f 987 451 442 985 
f 880 987 985 878 
f 459 988 986 450 
f 986 988 881 879 
f 989 460 451 987 
f 882 989 987 880 
f 468 990 988 459 
f 988 990 883 881 
f 991 469 460 989 
f 884 991 989 882 
f 477 992 990 468 
f 990 992 885 883 
f 993 478 469 991 
f 886 993 991 884 
f 486 994 992 477 
f 992 994 887 885 
f 995 487 478 993 
f 888 995 993 886 
f 495 996 994 486 
f 994 996 889 887 
f 997 496 487 995 
f 890 997 995 888 
f 504 998 996 495 
f 996 998 891 889 
f 999 505 496 997 
f 892 999 997 890 
f 513 1000 998 504 
f 998 1000 893 891 
f 1001 514 505 999 
f 894 1001 999 892 
f 522 1002 1000 513 
f 1000 1002 895 893 
f 1003 523 514 1001 
f 896 1003 1001 894 
f 531 1004 1002 522 
f 1002 1004 897 895 
f 1005 532 523 1003 
f 898 1005 1003 896 
f 540 1006 1004 531 
f 1004 1006 899 897 
f 1007 541 532 1005 
f 900 1007 1005 898 
f 549 1008 1006 540 
f 1006 1008 901 899 
f 1009 550 541 1007 
f 902 1009 1007 900 
f 558 1010 1008 549 
f 1008 1010 903 901 
f 1011 559 550 1009 
f 904 1011 1009 902 
f 567 1012 1010 558 
f 1010 1012 905 903 
f 1013 568 559 1011 
f 906 1013 1011 904 
f 576 1014 1012 567 
f 1012 1014 907 905 
f 1015 577 568 1013 
f 908 1015 1013 906 
f 585 1016 1014 576 
f 1014 1016 909 907 
f 1017 586 577 1015 
f 910 1017 1015 908 
f 594 1018 1016 585 
f 1016 1018 911 909 
f 1019 595 586 1017 
f 912 1019 1017 910 
f 603 1020 1018 594 
f 1018 1020 913 911 
f 1021 604 595 1019 
f 914 1021 1019 912 
f 612 1022 1020 603 
f 1020 1022 915 913 
f 1023 613 604 1021 
f 916 1023 1021 914 
f 621 1024 1022 612 
f 1022 1024 917 915 
f 1025 622 613 1023 
f 918 1025 1023 916 
f 630 1026 1024 621 
f 1024 1026 919 917 
f 1027 631 622 1025 
f 920 1027 1025 918 
f 639 1028 1026 630 
f 1026 1028 921 919 
f 1029 640 631 1027 
f 922 1029 1027 920 
f 648 1030 1028 639 
f 1028 1030 923 921 
f 1031 649 640 1029 
f 924 1031 1029 922 
f 657 1032 1030 648 
f 1030 1032 925 923 
f 1033 658 649 1031 
f 926 1033 1031 924 
f 666 1034 1032 657 
f 1032 1034 927 925 
f 1035 667 658 1033 
f 928 1035 1033 926 
f 675 1036 1034 666 
f 1034 1036 929 927 
f 1037 676 667 1035 
f 930 1037 1035 928 
f 684 1038 1036 675 
f 1036 1038 931 929 
f 1039 685 676 1037 
f 932 1039 1037 930 
f 693 1040 1038 684 
f 1038 1040 933 931 
f 1041 694 685 1039 
f 934 1041 1039 932 
f 702 1042 1040 693 
f 1040 1042 935 933 
f 1043 703 694 1041 
f 936 1043 1041 934 
f 711 1044 1042 702 
f 1042 1044 937 935 
f 1045 712 703 1043 
f 938 1045 1043 936 
f 720 1046 1044 711 
f 1044 1046 939 937 
f 1047 721 712 1045 
f 940 1047 1045 938 
f 729 1048 1046 720 
f 1046 1048 941 939 
f 1049 730 721 1047 
f 942 1049 1047 940 
f 738 1050 1048 729 
f 1048 1050 943 941 
f 1051 739 730 1049 
f 944 1051 1049 942 
f 747 1052 1050 738 
f 1050 1052 945 943 
f 1053 748 739 1051 
f 946 1053 1051 944 
f 756 1054 1052 747 
f 1052 1054 947 945 
f 1055 757 748 1053 
f 948 1055 1053 946 
f 765 1056 1054 756 
f 1054 1056 949 947 
f 1057 766 757 1055 
f 950 1057 1055 948 
f 774 1058 1056 765 
f 1056 1058 951 949 
f 1059 775 766 1057 
f 952 1059 1057 950 
f 783 1060 1058 774 
f 1058 1060 953 951 
f 1061 784 775 1059 
f 954 1061 1059 952 
f 792 1062 1060 783 
f 1060 1062 955 953 
f 1063 793 784 1061 
f 956 1063 1061 954 
f 801 1064 1062 792 
f 1062 1064 957 955 
f 1065 802 793 1063 
f 958 1065 1063 956 
f 810 1066 1064 801 
f 1064 1066 959 957 
f 1067 811 802 1065 
f 960 1067 1065 958 
f 819 1068 1066 810 
f 1066 1068 961 959 
f 1069 820 811 1067 
f 962 1069 1067 960 
f 828 1070 1068 819 
f 1068 1070 963 961 
f 1071 829 820 1069 
f 964 1071 1069 962 
f 837 1072 1070 828 
f 1070 1072 965 963 
f 1073 838 829 1071 
f 966 1073 1071 964 
f 846 1074 1072 837 
f 1072 1074 967 965 
f 1075 847 838 1073 
f 968 1075 1073 966 
f 855 1076 1074 846 
f 1074 1076 969 967 
f 1077 856 847 1075 
f 970 1077 1075 968 
f 864 1078 1076 855 
f 1076 1078 971 969 
f 424 425 426 427 428 429 430 431 432 971 1078 864 863 862 861 860 859 858 857 856 1077 970 
