# Vectary OBJ Export units=mm
o 01_BENCH
g BENCH
v 20.000 52.575 20.000
v 20.000 -92.575 20.000
v 80.000 -92.575 20.000
v 80.000 52.575 20.000
v 20.000 52.575 30.691
v 80.000 52.575 30.691
v 80.000 -92.575 30.691
v 20.000 -92.575 30.691
v 60.000 -70.803 0.000
v 60.000 -70.803 24.033
v 60.000 30.803 24.033
v 70.000 -70.803 24.033
v 70.000 30.803 24.033
v 60.000 30.803 0.000
v 70.000 -70.803 0.000
v 70.000 30.803 0.000
v 40.000 -70.803 0.000
v 40.000 30.803 0.000
v 40.000 30.803 24.033
v 40.000 -70.803 24.033
v 30.000 -70.803 0.000
v 30.000 30.803 0.000
v 30.000 30.803 24.033
v 30.000 -70.803 24.033
v 20.000 43.820 30.841
v 80.000 43.820 30.841
v 80.000 84.875 87.409
v 20.000 84.875 87.409
v 80.000 49.306 23.281
v 20.000 49.306 23.281
v 80.000 90.361 79.850
v 20.000 90.361 79.850
v 70.000 90.000 0.000
v 70.000 130.000 0.000
v 80.000 130.000 0.000
v 80.000 90.000 0.000
v 80.000 90.000 9.295
v 70.000 90.000 9.295
v 80.000 130.000 9.295
v 70.000 130.000 9.295
v 20.000 90.000 0.000
v 20.000 130.000 0.000
v 30.000 130.000 0.000
v 30.000 90.000 0.000
v 30.000 90.000 9.295
v 20.000 90.000 9.295
v 30.000 130.000 9.295
v 20.000 130.000 9.295
v 30.000 110.000 0.000
v 30.000 120.000 0.000
v 40.000 120.000 0.000
v 40.000 110.000 0.000
v 40.000 110.000 102.268
v 30.000 110.000 102.268
v 40.000 120.000 102.268
v 30.000 120.000 102.268
v 60.000 120.000 0.000
v 60.000 120.000 102.268
v 70.000 120.000 102.268
v 70.000 120.000 0.000
v 60.000 110.000 0.000
v 60.000 110.000 102.268
v 70.000 110.000 102.268
v 70.000 110.000 0.000
v 60.000 90.000 109.295
v 70.000 90.000 109.295
v 70.000 130.000 109.295
v 60.000 130.000 109.295
v 60.000 90.000 100.000
v 70.000 90.000 100.000
v 70.000 130.000 100.000
v 60.000 130.000 100.000
v 30.000 90.000 109.295
v 40.000 90.000 109.295
v 40.000 130.000 109.295
v 30.000 130.000 109.295
v 30.000 90.000 100.000
v 40.000 90.000 100.000
v 40.000 130.000 100.000
v 30.000 130.000 100.000
v 10.000 100.000 106.606
v 10.000 110.000 106.606
v 90.000 110.000 106.606
v 90.000 100.000 106.606
v 90.000 100.000 113.346
v 10.000 100.000 113.346
v 10.000 110.000 113.346
v 90.000 110.000 113.346
v 84.278 80.000 135.722
v 84.278 80.000 85.722
v 105.722 80.000 85.722
v 105.722 80.000 135.722
v 84.278 130.000 85.722
v 105.722 130.000 85.722
v 84.278 130.000 135.722
v 105.722 130.000 135.722
v -5.722 80.000 135.722
v -5.722 130.000 135.722
v -5.722 130.000 85.722
v -5.722 80.000 85.722
v 15.722 80.000 85.722
v 15.722 80.000 135.722
v 15.722 130.000 85.722
v 15.722 130.000 135.722
f 4 3 2 1 
f 5 6 4 1 
f 6 7 3 4 
f 8 7 6 5 
f 3 7 8 2 
f 2 8 5 1 
f 9 10 11 14 
f 9 15 12 10 
f 10 12 13 11 
f 14 11 13 16 
f 9 14 16 15 
f 15 16 13 12 
f 17 18 19 20 
f 21 22 18 17 
f 22 23 19 18 
f 24 20 19 23 
f 21 17 20 24 
f 21 24 23 22 
f 25 26 27 28 
f 29 26 25 30 
f 27 26 29 31 
f 28 27 31 32 
f 30 25 28 32 
f 31 29 30 32 
f 33 34 35 36 
f 33 36 37 38 
f 36 35 39 37 
f 38 37 39 40 
f 34 40 39 35 
f 33 38 40 34 
f 41 42 43 44 
f 41 44 45 46 
f 44 43 47 45 
f 46 45 47 48 
f 42 48 47 43 
f 41 46 48 42 
f 49 50 51 52 
f 49 52 53 54 
f 52 51 55 53 
f 54 53 55 56 
f 50 56 55 51 
f 49 54 56 50 
f 57 58 59 60 
f 61 62 58 57 
f 62 63 59 58 
f 64 60 59 63 
f 61 57 60 64 
f 61 64 63 62 
f 65 66 67 68 
f 69 70 66 65 
f 70 71 67 66 
f 72 68 67 71 
f 69 65 68 72 
f 69 72 71 70 
f 73 74 75 76 
f 77 78 74 73 
f 78 79 75 74 
f 80 76 75 79 
f 77 73 76 80 
f 77 80 79 78 
f 81 82 83 84 
f 85 86 81 84 
f 86 87 82 81 
f 88 87 86 85 
f 82 87 88 83 
f 83 88 85 84 
f 89 90 91 92 
f 90 93 94 91 
f 89 95 93 90 
f 89 92 96 95 
f 95 96 94 93 
f 92 91 94 96 
f 97 98 99 100 
f 97 100 101 102 
f 100 99 103 101 
f 102 101 103 104 
f 98 104 103 99 
f 97 102 104 98 
